{
    "author": {
    "name": "Command list:",
    "url": "http://5124.mywire.org/",
    "icon_url": "https://cdn.discordapp.com/emojis/422900553706766357.png"
    },
    
    "title": "{necessary parameter} <optional parameter> !disabled_command *multiple_allowed",
    "url": "http://5124.mywire.org/HDD/Downloads/Ne%20Obliviscaris%20-%20Citadel.mp3",
    "color": 16737535,


    "fields": [
      {
        "name": "Basic info",
        "value": "Available prefixes: `n!`, `m!`, `food!`\nWritten in python by nitsuga5124"
      },
      {
        "name": "Debug/Info",
        "value": "`admin_bot_invite` (Gives an invite link for the bot with full permissions) \n`custom_bot_invite` (Gives and invite link with just the necessary permissions) \n`ip` (Gives 5124.mywire.org IP Address) \n`ping` (Gives the ping between the bot and the api) \n`source` (Provides the user with the bot's source code)\n`todo` (Gives a To Do List)"
      },
      {
        "name": "Fun/Utility",
        "value": "`define {term}` (Defines a word using Urban Dictionary)\n`report {who} *{reason}` (Reports X for Reasons)\n`dictionary {word}` (Sends the word's definition)\n`translate {to lang} <source=<LANG>> *{text}` (Translates the text from one language to another)\n`calculator {math operation}` (Basically a calculator. Does support scientific stuff like sqrt and log)"
      },
      {
        "name": "osu!",
        "value": "`recent <osuname/id> <gamemode name>` (Shows your recent osu! play score and stats, even if failed)\n`osuc {username/id} <recent length> <show pp? (0/1)> <Mode ID>` (Binds your disord account to a specific username, in the case that your username is not the same in both)\n`osu_profile <username/id> <pp (0/1)>` (Shows your osu! profile information)"
      },
      {
        "name": "DDG",
        "value": "`search <bang> {term}` (Searches the term on duckduckgo and posts the most relevant result)\n`bangs` (Sends a link with all the existing bangs)\n`noresults` (Explains why sometimes the search command doesn't have results to post)"
      },
      {
        "name": "Stream",
        "value": "`embedtest` (Tests -GN's stream notification embed)\n`!streamrole` (Gives the stream role)\n`clm *{message}` | `cnlm` *{message} (Changes live and not live messages respectively (only -GN is allowed to use this commands))"
      },
      {
        "name": "Music",
        "value": "`join` (Joins the bot to the voice chat you are on)\n`specific_join {name}` (Joins the specified channel name)\n`stop` (Stops the music and disconnects the bot from VC)\n`volume {number max:100}` (Sets the volume of the bot for everyone)\n\n`play {URL}` (Streams the audio of the url to the bot)\n`dplay {URL}` (Downloads the audio from the url and plays it on the bot)\n`lplay {URL}` (Plays the audio from a local file to the bot)\nSupported websites: https://bit.ly/2XKgkuV"
      },
      {
        "name": "Reddit",
        "value": "`reddit_post {Subreddit}` (Posts a random post from the subreddi)\n`user_post {username}` (Posts a random post from the user)\n`reddit_bomb {subreddit} <ammount Max:5>` (Posts X ammounts of random posts of the specified subreddit)\n`reddit_user_bomb {user} <ammount Max:5>` (Posts X ammounts of random posts of the specified user)\n`hentaibomb <ammount max:5>` (Sends X hentai images from `u/afterdarkstash`)\n`delete reddit` (Deletes the last reddit post sent)"
      },
      {
        "name": "Image Manipulation",
        "value": "`pride *{last/url/embed/2}` (Prides the sent images, `last = image from the previous message`)\n`grayscale *{last/url/embed}` (Grayscales the image)\nSupported formats: `jpg`|`jpeg`|`png`|`webp`"
      },
      {
        "name": "LocalNSFW",
        "value": "`sauce` (Sends hentai on <#354294536198946817>)\n`thighs` (Sends thighs (mostly irl) on <#354294536198946817>)\n`goodthighs` (Sends preselected HQ thighs (mostly ir) on <#354294536198946817>)"
      },
      {
        "name": "WaifuBot",
        "value": "Based of -GN's WaifuBot https://github.com/isakvik/waifubot/ \n\nFlags: \nNone = Safe\n`-x` = Explicit\n`-n` = Non-Safe (Random Explicit or Questionable)\n`-r` = Any Rating\n\nTo delete the last sent picture run `delete picture`"
      },
      {
        "name": "Danbooru",
        "value": "Tag limit of 1 except if the flag is `-r`, then it's 2.\nTag exclusions don't work because of the tag limit.\n\n`dpicture <flag> <tags>` (Sends a picture with the specified tags)\n`dbestgirl <from/set> <user/tags/flag>` (<from> sends the bestgirl of the pinged user | <set> sets your best girl to the specified tag | <nothing> sends a picture of your best girl)\n`!exclude` (blacklists the set tags on search)\n`!excludes` (Shows your current blacklisted tags)"
      },
      {
        "name": "Mobooru",
        "value": "`!picture <flag> <tags>` (Sends a picture with the specified tags)\n`!bestgirl <from/set> <user/tags/flag>` (<from> sends the bestgirl of the pinged user | <set> sets your best girl to the specified tag | <nothing> sends a picture of your best girl)\n`!exclude` `!excludes` (This are the same as the ones in danbooru, so tags will get blacklisted on both)"
      },
      {
        "name": "YandeRe",
        "value": "New flag: `-u {uploader}`\n\n`yandere <flag> <tags>` (Sends a picture with the specified tags from yandere)\n`tags <parameter>` (Default parameter is tags, sends the parameter from the last image, list here: http://5124.mywire.org/HDD/SS/21:32:16_29-07-2019.png)"
      },
      {
        "name": "Sankaku Black/White",
        "value": "All the yandere flags work.\n\n`sankaku <flag> <tags>` (Sends a picture with the specified tags from sankaku chan)\n`!stags <parameter>` (Default parameter is tags, sends the parameter from the last image)\n`threshold` (Changes between True and False the limitation of 'atleast 4 stars')"
      }
    ]
}
