{
    "description": "`{necessary parameter}` | `<optional parameter>` | `!disabled_command` | `*multiple_allowed`",
    "color": 10842320,
    "description" : "Create tags so you don't have to repeate yourself!\nThe tags are binded to the guild it was created on, so other people on that guild can use them, but you will be able to use those tags anywhere the bot is.\n\nIf you desire to create a tag with spaces, just put the name between ``\" \"`` on creation.",
    "author": {
      "name": "NSFW help",
      "url": "https://gitlab.com/nitsuga5124/nitsugabot",
      "icon_url": "https://cdn.discordapp.com/emojis/422900553706766357.png"
    },
    "fields": [
      {
        "name": "tag {tag name}",
        "value": "Sends the specified tag; This prioritizes your personal tags over the Guild tags"
      },      
      {
        "name": "tag create {tag name} *{content}",
        "value": "Creates a tag with the specified name and the content; This saves the tag to the creation guild and is binded to you."
      },
      {
        "name": "tag edit {tag name} *{content}",
        "value": "Edits the specified tag to the new content; Has to be owned by you ofc, and if you edit it in a different guild of creation, it will replace the guild bind."
      },
      {
        "name": "tag remove {tag}",
        "value": "This removes the specified tag; Has to be owned by you."
      }
    ]
}
